\relax 
\@writefile{toc}{\contentsline {section}{\numberline {1}Introducci\IeC {\'o}n}{1}}
\@writefile{toc}{\contentsline {section}{\numberline {2}Secci\IeC {\'o}n del Compa\IeC {\~n}ero}{1}}
\@writefile{toc}{\contentsline {subsection}{\numberline {2.1}Antecedentes}{1}}
\@writefile{toc}{\contentsline {section}{\numberline {3}Llegada}{1}}
\newlabel{fig:Captura}{{1}{1}}
